# Exported from Wings 3D 1.5.3
mtllib cone.mtl
o cone6
#17 vertices, 17 faces
v 1.00000000 -1.00000000 0.0000000e+0
v 0.92387953 -1.00000000 0.38268343
v 0.70710678 -1.00000000 0.70710678
v 0.38268343 -1.00000000 0.92387953
v 6.1232340e-17 -1.00000000 1.00000000
v -0.38268343 -1.00000000 0.92387953
v -0.70710678 -1.00000000 0.70710678
v -0.92387953 -1.00000000 0.38268343
v -1.00000000 -1.00000000 1.2246468e-16
v -0.92387953 -1.00000000 -0.38268343
v -0.70710678 -1.00000000 -0.70710678
v -0.38268343 -1.00000000 -0.92387953
v -1.8369702e-16 -1.00000000 -1.00000000
v 0.38268343 -1.00000000 -0.92387953
v 0.70710678 -1.00000000 -0.70710678
v 0.92387953 -1.00000000 -0.38268343
v 0.0000000e+0 1.00000000 0.0000000e+0
vn 0.99770979 -6.7640061e-2 -2.0440412e-16
vn 0.92176365 -6.7640061e-2 0.38180701
vn 0.70548736 -6.7640061e-2 0.70548736
vn 0.38180701 -6.7640061e-2 0.92176365
vn 0.0000000e+0 -6.7640061e-2 0.99770979
vn -0.38180701 -6.7640061e-2 0.92176365
vn -0.70548736 -6.7640061e-2 0.70548736
vn -0.92176365 -6.7640061e-2 0.38180701
vn -0.99770979 -6.7640061e-2 6.2893574e-17
vn -0.92176365 -6.7640061e-2 -0.38180701
vn -0.70548736 -6.7640061e-2 -0.70548736
vn -0.38180701 -6.7640061e-2 -0.92176365
vn -1.2578715e-16 -6.7640061e-2 -0.99770979
vn 0.38180701 -6.7640061e-2 -0.92176365
vn 0.70548736 -6.7640061e-2 -0.70548736
vn 0.92176365 -6.7640061e-2 -0.38180701
vn -3.1518972e-17 1.00000000 1.5365499e-16
g cone6_default
usemtl default
s 1
f 1//1 17//17 2//2
f 2//2 3//3 4//4 5//5 6//6 7//7 8//8 9//9 10//10 11//11 12//12 13//13 14//14 15//15 16//16 1//1
f 2//2 17//17 3//3
f 3//3 17//17 4//4
f 4//4 17//17 5//5
f 5//5 17//17 6//6
f 6//6 17//17 7//7
f 7//7 17//17 8//8
f 8//8 17//17 9//9
f 9//9 17//17 10//10
f 10//10 17//17 11//11
f 11//11 17//17 12//12
f 12//12 17//17 13//13
f 13//13 17//17 14//14
f 14//14 17//17 15//15
f 15//15 17//17 16//16
f 16//16 17//17 1//1
